<?xml version="1.0" encoding="utf-8"?>
<!-- Generator: Adobe Illustrator 21.0.0, SVG Export Plug-In . SVG Version: 6.00 Build 0)  -->
<svg version="1.1" id="Слой_1" xmlns="http://www.w3.org/2000/svg" xmlns:xlink="http://www.w3.org/1999/xlink" x="0px" y="0px"
	 viewBox="0 0 198.3 349.2" style="enable-background:new 0 0 198.3 349.2;" xml:space="preserve">
<style type="text/css">
	.st0{fill:none;stroke:url(#SVGID_1_);stroke-width:8;stroke-miterlimit:10;}
</style>
<title>bulb2</title>
<linearGradient id="SVGID_1_" gradientUnits="userSpaceOnUse" x1="-37.7106" y1="144.7267" x2="189.0101" y2="227.2424">
	<stop  offset="0" style="stop-color:#330086"/>
	<stop  offset="0.2" style="stop-color:#4B00BE"/>
	<stop  offset="0.38" style="stop-color:#5E00ED"/>
	<stop  offset="0.48" style="stop-color:#6600FF"/>
	<stop  offset="0.53" style="stop-color:#6E06F6"/>
	<stop  offset="0.62" style="stop-color:#8217DC"/>
	<stop  offset="0.74" style="stop-color:#A333B3"/>
	<stop  offset="0.88" style="stop-color:#D1597A"/>
	<stop  offset="1" style="stop-color:#FF7F41"/>
</linearGradient>
<path class="st0" d="M193.9,193.3C164.3,339.6,41.7,358.5,15.3,338.6c-40.2-30.3,41.6-25.4,22.9-169.4C21.2,87.6-24.4,4,47.1,4
	c31.1,0,61.3,20.8,87.4,92.5C152.7,146.6,198.6,131,193.9,193.3z"/>
</svg>
