<?xml version="1.0" encoding="utf-8"?>
<!-- Generator: Adobe Illustrator 21.0.0, SVG Export Plug-In . SVG Version: 6.00 Build 0)  -->
<svg version="1.1" id="Слой_1" xmlns="http://www.w3.org/2000/svg" xmlns:xlink="http://www.w3.org/1999/xlink" x="0px" y="0px"
	 viewBox="0 0 193.5 323.5" style="enable-background:new 0 0 193.5 323.5;" xml:space="preserve">
<style type="text/css">
	.st0{fill:url(#SVGID_1_);}
</style>
<title>bulb-11</title>
<linearGradient id="SVGID_1_" gradientUnits="userSpaceOnUse" x1="-36.7925" y1="356.5435" x2="190.2235" y2="273.9214" gradientTransform="matrix(1 0 0 1 0 -158.9)">
	<stop  offset="0" style="stop-color:#FF7F41"/>
	<stop  offset="0.15" style="stop-color:#D1597A"/>
	<stop  offset="0.31" style="stop-color:#A333B3"/>
	<stop  offset="0.45" style="stop-color:#8217DC"/>
	<stop  offset="0.56" style="stop-color:#6E06F6"/>
	<stop  offset="0.62" style="stop-color:#6600FF"/>
	<stop  offset="0.7" style="stop-color:#5E00ED"/>
	<stop  offset="0.84" style="stop-color:#4B00BE"/>
	<stop  offset="1" style="stop-color:#330086"/>
</linearGradient>
<path class="st0" d="M190.8,180.3c-7.7,37.9-43.4,57.6-45.6,85.1c-2.9,35.5-54.2,60.9-122.3,57.8C-20.8,324.8,12.9,211.4,5,193
	C-0.1,110.8-7.2,0,64.3,0c42.4,0,78.6,22.9,107.3,71.3C191.4,104.5,197.6,147.1,190.8,180.3z"/>
</svg>
